rs307347
rs2803291
rs7531342
rs1890336
rs2455118
rs12093117
rs2799182
rs10915430
rs12132422
rs1459764
rs10915330
rs11260694
rs11260662
rs2232463
rs2072948
rs12751613
rs12128469
rs2493215
rs10864368
rs10864390
rs11121384
rs10157778
rs11587145
rs10864474
rs12028719
rs880923
rs11808281
rs12058043
rs926619
rs9442234
rs2235930
rs2295059
rs622590
rs11260970
rs11260999
rs10907312
rs3748744
rs12140071
rs10799837
rs10916824
rs9628653
rs333195
rs12096154
rs10917237
rs637163
rs909534
rs6678540
rs3936073
rs12086212
rs10489440
rs11582016
rs11588172
rs807270
rs12565228
rs11578260
rs1187948
rs12125221
rs490633
rs9662524
rs502585
rs2180745
rs798074
rs10493066
rs10489413
rs3738516
rs1393637
rs797910
rs6700759
rs10493205
rs597941
rs10493219
rs10493225
rs2006964
rs7517300
rs2295942
rs699229
rs10489554
rs2182707
rs1338651
rs199666
rs10489785
rs1780747
rs10489650
rs952312
rs10493659
rs10489506
rs3121147
rs1334143
rs10518418
rs1192414
rs10493875
rs1930211
rs2121971
rs1524118
rs1781050
rs10494118
rs3908929
rs10923960
rs1290541
rs1998844
rs10489826
rs10489842
rs10494356
rs7524537
rs10494411
rs3820369
rs10494462
rs7529003
rs1412337
rs1009583
rs10489223
rs10489226
rs9332418
rs10494592
rs500764
rs10494638
rs10494680
rs10494683
rs2365299
rs2137435
rs3106365
rs1553622
rs10494942
rs12087287
rs4655475
rs6687411
rs520982
rs10494997
rs10495005
rs6673524
rs2818791
rs6604659
rs2859771
rs7527314
rs10495085
rs725033
rs10495116
rs10495149
rs10495153
rs7518813
rs1816878
rs10495331
rs4920192
rs1912231
rs2217881
rs718002
rs2602629
rs10495529
rs6716906
rs10495595
rs2056150
rs2345517
rs4665830
rs2014701
rs2113490
rs280734
rs6739609
rs4670433
rs7584849
rs10195029
rs10490668
rs10490661
rs6544094
rs1368112
rs10490305
rs10490655
rs4953200
rs2293272
rs10490220
rs2715067
rs10496004
rs12623137
rs929689
rs10490397
rs727281
rs4443033
rs1522685
rs4494727
rs10496109
rs4671751
rs3849393
rs1106855
rs2216105
rs6732511
rs10519330
rs402221
rs6719738
rs10496234
rs7591826
rs10520375
rs11899884
rs1973839
rs867539
rs10496360
rs4851672
rs409542
rs2377691
rs2030675
rs7601939
rs389653
rs6759275
rs6746923
rs1044836
rs10496457
rs10496484
rs10496519
rs10496544
rs10490628
rs11122897
rs1515171
rs2030833
rs7589076
rs6737142
rs12711701
rs10496651
rs7598599
rs3845654
rs2406272
rs281583
rs9973445
rs2116538
rs11892854
rs7605112
rs7355746
rs10497008
rs1550319
rs4665168
rs967496
rs2961958
rs7569708
rs4363980
rs10497213
rs1516105
rs10497223
rs7585848
rs1226907
rs4668044
rs4233817
rs552685
rs1465621
rs10497430
rs10497502
rs10497480
rs1840108
rs9288052
rs2370473
rs7570098
rs2165153
rs10201984
rs291458
rs7567063
rs10497725
rs4853669
rs1471772
rs2246297
rs6740862
rs5013977
rs10497782
rs700674
rs4581881
rs6714893
rs2192930
rs888620
rs9288384
rs1594273
rs9288396
rs10497912
rs1446607
rs2371025
rs1025752
rs4372827
rs1912170
rs10498030
rs10498069
rs10490421
rs10498081
rs2163643
rs1921634
rs10498206
rs7591163
rs1997275
rs10490032
rs1946122
rs3791711
rs2602385
rs1441613
rs982224
rs3791517
rs843451
rs6718518
rs10510181
rs2055316
rs6768035
rs4685578
rs4685668
rs9842070
rs7627789
rs2729180
rs10510199
rs7340697
rs7653018
rs9813890
rs2171597
rs1153501
rs1666381
rs6773382
rs724707
rs899540
rs10510240
rs6763097
rs3846138
rs4085638
rs6442783
rs11929638
rs2054873
rs6767150
rs1485272
rs10510288
rs2629268
rs13318381
rs2054871
rs12493142
rs4685834
rs4054865
rs11915014
rs4685942
rs2163210
rs7641425
rs1033251
rs2082850
rs6443047
rs280481
rs6790573
rs9311966
rs1566368
rs2173506
rs2875237
rs9833675
rs1154373
rs3804886
rs3792452
rs400199
rs1516371
rs9312013
rs2062371
rs359018
rs75775
rs83622
rs7652415
rs7610410
rs6786287
rs1642977
rs6442165
rs4501094
rs2279599
rs2655296
rs6809562
rs3774098
rs2950799
rs11929549
rs7638724
rs364476
rs1481866
rs2920500
rs10510417
rs2972162
rs1466835
rs1961633
rs7372316
rs358596
rs89910
rs6442403
rs11708577
rs7611704
rs6442409
rs867606
rs1433355
rs9850906
rs3731102
rs1689581
rs3773480
rs9864422
rs7637884
rs1869850
rs9859622
rs6788391
rs2730362
rs1546377
rs1429164
rs6442645
rs2733519
rs6787756
rs11922534
rs1346887
rs1513764
rs334960
rs2102649
rs12636814
rs9814599
rs1442198
rs1911008
rs1879775
rs9880240
rs1497513
rs877040
rs9310651
rs1491881
rs6792967
rs7632540
rs12152551
rs9310716
rs6550801
rs7651185
rs9823643
rs11711279
rs9846880
rs2649619
rs3773424
rs2364593
rs1365513
rs1016969
rs7426469
rs2370855
rs9865071
rs1522151
rs6785306
rs7629240
rs13091879
rs6767711
rs9828781
rs1382413
rs428311
rs669607
rs453627
rs10510606
rs9873347
rs7634213
rs598014
rs7622065
rs1866771
rs7629831
rs12497236
rs6766668
rs1390295
rs795347
rs7611252
rs9310945
rs9809583
rs11129428
rs4072517
rs6777902
rs4510414
rs4569693
rs7641393
rs13315804
rs11129498
rs9825310
rs12107280
rs13320986
rs6550167
rs4678958
rs9856967
rs6795006
rs1154712
rs12497198
rs4678692
rs4678495
rs1463552
rs1382544
rs4324431
rs1542212
rs11710248
rs1479147
rs7630199
rs906476
rs6550437
rs13098279
rs267556
rs9866555
rs2300665
rs272576
rs9850171
rs4679029
rs1805124
rs6795880
rs9827941
rs10510698
rs9798910
rs2371133
rs3924444
rs11717510
rs6806087
rs374289
rs9883073
rs4580521
rs2625667
rs10865918
rs1472807
rs4392389
rs1825932
rs6441876
rs10490813
rs704922
rs267254
rs2271619
rs730983
rs1356874
rs1520494
rs4683306
rs6785790
rs6800271
rs2140335
rs11707258
rs6797587
rs3731513
rs2633958
rs9840684
rs10865959
rs2071803
rs736471
rs388345
rs10470618
rs2356261
rs4687800
rs9836804
rs9846049
rs352148
rs11709658
rs7626551
rs6768844
rs6783748
rs681320
rs3774527
rs1449339
rs4472075
rs1375522
rs7648567
rs1530732
rs661201
rs647480
rs4955944
rs4124853
rs1179373
rs11917617
rs2034916
rs6445768
rs13065124
rs6445860
rs6774584
rs6768661
rs4681988
rs6762098
rs1478856
rs11915402
rs957209
rs9835689
rs9850077
rs1504910
rs12487545
rs1882898
rs10490773
rs7632868
rs9837947
rs2205360
rs9834435
rs1915994
rs9311832
rs9844687
rs7611117
rs1506746
rs2599550
rs7426406
rs9818966
rs4133197
rs6445365
rs10510911
rs11928592
rs6776209
rs3774722
rs830354
rs2263039
rs7638389
rs7340580
rs704447
rs2061937
rs4688562
rs1524977
rs11920504
rs783129
rs9840814
rs9812625
rs4482613
rs6765377
rs6548460
rs1552626
rs6548593
rs1463233
rs11720476
rs4856798
rs13316715
rs7613096
rs902721
rs262193
rs1397253
rs6774520
rs4855543
rs1121878
rs9818798
rs831451
rs13062487
rs6549583
rs1352476
rs1374871
rs4856497
rs1588317
rs6781140
rs1160291
rs10511074
rs13099234
rs7641693
rs704592
rs4928137
rs793459
rs7641091
rs6806731
rs10511132
rs2141603
rs10511256
rs697957
rs2399252
rs10511277
rs3868879
rs1369580
rs902793
rs2331540
rs10511422
rs2291079
rs1071912
rs2687720
rs12496397
rs1553975
rs10490862
rs10512975
rs10513031
rs2350512
rs1607493
rs6763927
rs6767158
rs10513192
rs10490848
rs800080
rs1585942
rs2219934
rs6440429
rs9289722
rs6799507
rs1908052
rs1386286
rs12636713
rs10513392
rs10513406
rs2863754
rs1027530
rs10513488
rs6769330
rs10513567
rs7627193
rs722352
rs720588
rs6443544
rs1032382
rs7641773
rs10490802
rs10513686
rs10513692
rs7613643
rs9290479
rs685963
rs11708020
rs7639025
rs1032077
rs4857658
rs766741
rs6780454
rs3816112
rs3914753
rs4686491
rs7619556
rs7644510
rs1473869
rs1014940
rs6848471
rs231200
rs2749785
rs4538480
rs733175
rs10516213
rs6448400
rs2866058
rs1479284
rs7442191
rs7442554
rs12504527
rs1488839
rs10516382
rs6829065
rs10489000
rs929623
rs10517141
rs10517208
rs530174
rs1605209
rs4292351
rs10517336
rs959297
rs7678296
rs2941005
rs1873195
rs2687972
rs1008086
rs10517040
rs1450917
rs2130913
rs9291270
rs472062
rs4368642
rs454707
rs2411251
rs1962230
rs7695300
rs140644
rs10517400
rs1983236
rs7694980
rs10517506
rs4569786
rs767645
rs1456830
rs2197877
rs683059
rs7434408
rs479117
rs519014
rs2703155
rs724958
rs1876120
rs10516730
rs12508939
rs2736982
rs10516798
rs2728104
rs772489
rs722937
rs6852056
rs2870361
rs13109229
rs10516413
rs2870709
rs11721736
rs1373647
rs10516995
rs2646012
rs2099365
rs925172
rs2695213
rs10516490
rs460610
rs2054393
rs735403
rs412477
rs3796956
rs10516526
rs9307328
rs763917
rs4698796
rs10516584
rs6841595
rs1486863
rs884555
rs757237
rs13152031
rs7676999
rs814380
rs298928
rs10516639
rs6821083
rs2714970
rs1509005
rs10518365
rs2204586
rs4374642
rs2086346
rs10518416
rs1364874
rs7683492
rs10518451
rs953211
rs7666887
rs4362835
rs9307579
rs2020001
rs1399215
rs12503257
rs11932481
rs1216379
rs6846189
rs1567373
rs2054931
rs6857529
rs348088
rs4492016
rs1493504
rs11939909
rs10519372
rs1509264
rs10519469
rs1376089
rs2007470
rs2139994
rs10519618
rs1353624
rs2165819
rs10519678
rs2135963
rs702757
rs2358469
rs853721
rs979227
rs6858331
rs10517563
rs1566472
rs7682774
rs2880412
rs877655
rs1355875
rs4691304
rs1055400
rs1464452
rs2911940
rs2343736
rs4615227
rs10517687
rs2349301
rs10517732
rs10002488
rs2303961
rs2874792
rs411842
rs6849616
rs1518203
rs1395661
rs4692574
rs412763
rs2118443
rs4695761
rs4469047
rs7438439
rs1983130
rs9312207
rs1376544
rs1458693
rs1993327
rs997475
rs1987163
rs1554235
rs3924787
rs36982
rs1107059
rs898061
rs2115525
rs461240
rs10512850
rs10512917
rs10512943
rs6859923
rs38065
rs2578618
rs1995214
rs10513066
rs2727607
rs2934812
rs9312912
rs10520857
rs9293052
rs1435814
rs7735817
rs10520912
rs10520904
rs10520908
rs4867423
rs10520979
rs3846632
rs1604422
rs6869599
rs6451303
rs2366979
rs4435876
rs2598324
rs2056403
rs2233216
rs2042313
rs389075
rs2161582
rs1544774
rs984926
rs1906922
rs2276987
rs1867737
rs2163955
rs173754
rs34697
rs2372048
rs10515059
rs1217791
rs33422
rs6892578
rs10515213
rs1372319
rs1457078
rs342410
rs2644812
rs800825
rs1500150
rs323744
rs965566
rs10514368
rs6894476
rs10515287
rs2616289
rs10515265
rs10515312
rs10515361
rs28826
rs9326745
rs1378506
rs10515451
rs7718000
rs1405472
rs905831
rs2162808
rs9327207
rs6595447
rs10519746
rs329167
rs328970
rs10519896
rs764210
rs11957867
rs6888236
rs4235801
rs4463175
rs4976516
rs3777120
rs10515508
rs2240695
rs415388
rs371846
rs7721549
rs9325005
rs3797302
rs1897527
rs7727919
rs966088
rs548294
rs1529502
rs6891593
rs10515809
rs4132889
rs4407647
rs4867897
rs753145
rs4868012
rs8543
rs7718261
rs1445844
rs3734505
rs725367
rs1927272
rs910553
rs4959496
rs9297055
rs10498676
rs9295823
rs2147201
rs861209
rs7770731
rs10484342
rs4715925
rs1570245
rs7757252
rs7769632
rs201296
rs2025503
rs6921343
rs1997672
rs10484543
rs1736924
rs719654
rs10484567
rs10484927
rs4711764
rs227813
rs4349810
rs1028495
rs9296584
rs10484857
rs4613808
rs10484994
rs2076475
rs10484709
rs3996938
rs1204137
rs1197892
rs1922943
rs1502957
rs2061578
rs2126119
rs10498883
rs10498890
rs278318
rs1932841
rs4282375
rs12214530
rs10484726
rs196677
rs61794
rs1657308
rs723142
rs10484794
rs6914350
rs6910649
rs1590957
rs854873
rs10485101
rs2224854
rs1325065
rs10499031
rs10485275
rs9322655
rs6938452
rs10484480
rs195087
rs1074195
rs7741833
rs2185263
rs10485341
rs7761005
rs2131829
rs9321050
rs265355
rs9321202
rs1468052
rs719885
rs10484798
rs10484593
rs6918138
rs2761089
rs6923545
rs615512
rs10484601
rs10484921
rs3870364
rs619089
rs9322537
rs9397956
rs1591375
rs493411
rs422805
rs1553857
rs3799594
rs162295
rs4637765
rs10267796
rs11763020
rs9791389
rs4273749
rs10447540
rs10950641
rs6967255
rs6964346
rs2880204
rs895710
rs1568731
rs7788807
rs6964780
rs6463513
rs4724928
rs10081236
rs10486168
rs3779375
rs4725048
rs6463755
rs2214697
rs1029523
rs7802625
rs2194770
rs6971330
rs11981451
rs917174
rs1990103
rs2108004
rs763399
rs6943346
rs10258615
rs3800842
rs6945381
rs6945357
rs847960
rs966237
rs6460978
rs13247236
rs2357200
rs10486074
rs10224519
rs6971370
rs4431490
rs2237492
rs4721464
rs10486791
rs6959566
rs10486794
rs7777646
rs860196
rs2237297
rs537276
rs6461337
rs2254176
rs4721666
rs10226084
rs4535616
rs1178373
rs2106507
rs183325
rs2301949
rs10258557
rs2192477
rs10486360
rs3114455
rs4719617
rs204587
rs1860873
rs2057999
rs6964771
rs2893046
rs1989904
rs2240472
rs1476687
rs10266901
rs2528919
rs2961307
rs2286498
rs714442
rs4607514
rs740830
rs10279416
rs10487600
rs16083
rs10487605
rs6956326
rs2711026
rs4722417
rs2391087
rs4541811
rs1023711
rs12530718
rs2693669
rs13311288
rs2522825
rs2285724
rs42118
rs2237337
rs2237344
rs6972785
rs997908
rs221111
rs317710
rs2011147
rs1420143
rs850139
rs174923
rs10488084
rs38463
rs1203183
rs2690851
rs7780078
rs1468597
rs34173
rs11982321
rs1008540
rs215601
rs787221
rs6462381
rs1419927
rs6462487
rs3886609
rs1362165
rs2022142
rs1833090
rs1649220
rs1600015
rs4723440
rs6945707
rs7789881
rs2247995
rs10238019
rs7785477
rs2723996
rs10282309
rs2722292
rs4346913
rs6462795
rs3734953
rs1464717
rs2276535
rs1229020
rs4723862
rs3819413
rs6462962
rs9886164
rs12667523
rs6964018
rs29482
rs431435
rs273128
rs573415
rs10226615
rs3779177
rs10269146
rs2116649
rs7797942
rs10247165
rs6972287
rs4724238
rs2528366
rs2251245
rs4406314
rs13328358
rs2268313
rs7779430
rs2140883
rs2247917
rs1004028
rs2331390
rs6962322
rs12702247
rs2470996
rs675242
rs2123608
rs6583501
rs7794000
rs960380
rs1425887
rs4917011
rs998850
rs10486763
rs1561251
rs11238438
rs6592945
rs6979413
rs674805
rs2159809
rs213182
rs1661612
rs2912902
rs6973191
rs769346
rs4947814
rs2059407
rs6972213
rs1997373
rs1358659
rs2049564
rs4425715
rs13444838
rs12674036
rs7798065
rs6944655
rs3113654
rs1543109
rs13240443
rs10224500
rs2382591
rs11977837
rs6978652
rs11760664
rs316314
rs7357162
rs7799892
rs1522499
rs1718582
rs10487941
rs844699
rs2528023
rs9649304
rs727200
rs2216457
rs2140491
rs10272499
rs799974
rs2366970
rs1636556
rs1229500
rs258664
rs929381
rs1544461
rs2108054
rs2715157
rs4728592
rs1860779
rs1859128
rs2188828
rs13443688
rs10487072
rs6465201
rs2374094
rs194534
rs10488006
rs10499903
rs10487250
rs441051
rs9641137
rs10487131
rs319331
rs13242493
rs1006817
rs194825
rs6979695
rs10487146
rs10487823
rs10486020
rs342239
rs4564
rs12705590
rs820933
rs10499984
rs10487321
rs10487325
rs799651
rs2079530
rs1525804
rs6977803
rs6979982
rs2709517
rs6948264
rs2402002
rs1002397
rs12333554
rs1024434
rs3757798
rs10487398
rs6953768
rs3898475
rs12533932
rs41697
rs740812
rs1343905
rs2267875
rs7790511
rs4731179
rs1525619
rs1419609
rs2237751
rs7789922
rs11563630
rs719335
rs281913
rs6467426
rs1862873
rs1790998
rs292499
rs2696888
rs12667644
rs1882087
rs324572
rs1725021
rs706579
rs273991
rs2718136
rs2365097
rs6464473
rs2156966
rs4726615
rs13443172
rs2888245
rs2693405
rs2190004
rs2247143
rs10485844
rs709063
rs1881628
rs6952434
rs4725463
rs3111276
rs2335834
rs842437
rs10503168
rs9644328
rs2198944
rs10503192
rs10503217
rs10503251
rs1864516
rs1382259
rs10503271
rs10503290
rs2056666
rs10503302
rs10503331
rs10503350
rs2897911
rs951702
rs9329167
rs1382144
rs10503492
rs1346277
rs10503555
rs10503578
rs1034557
rs709848
rs2035681
rs10503621
rs919149
rs10503756
rs4732688
rs3087418
rs327359
rs2178256
rs2897245
rs6998933
rs9298572
rs1471026
rs7462642
rs10504081
rs10504115
rs10504117
rs7008275
rs10504130
rs10504132
rs3735831
rs10504193
rs1568953
rs2732106
rs7820206
rs10504545
rs10504568
rs6984320
rs2872028
rs10504660
rs11776326
rs1608032
rs10504802
rs318238
rs1546745
rs1847553
rs1347608
rs10504967
rs4143626
rs10505169
rs10505241
rs4324942
rs1563563
rs9297740
rs4123791
rs4386936
rs4909417
rs10505702
rs1337627
rs2086085
rs876294
rs10732363
rs4742595
rs7853311
rs7025529
rs10511556
rs10511559
rs1536523
rs4977882
rs1220047
rs957252
rs10491820
rs577787
rs7028992
rs2378303
rs4144879
rs10512164
rs10491846
rs9299258
rs1388923
rs593924
rs9299173
rs315711
rs10513237
rs2418376
rs10513278
rs9299252
rs10513339
rs1932173
rs9299273
rs12350777
rs7874348
rs7040561
rs10491514
rs306539
rs602990
rs6537989
rs2245191
rs1244186
rs2399864
rs1928353
rs1171136
rs3006832
rs10508741
rs603072
rs7905537
rs10508823
rs10857470
rs10490967
rs10508969
rs10508966
rs1991393
rs1903941
rs717452
rs2199209
rs2246190
rs10509176
rs7905352
rs1394333
rs2394187
rs10509275
rs10491057
rs1925568
rs1312911
rs10509385
rs1416851
rs400659
rs10509653
rs9325510
rs2035750
rs1857261
rs10509880
rs10509921
rs10509936
rs2497725
rs2483578
rs10490918
rs2249295
rs180644
rs1049125
rs1992824
rs10510051
rs869743
rs10510147
rs1339516
rs725518
rs2641412
rs2342382
rs10500669
rs994990
rs4756786
rs3886607
rs10500972
rs10500975
rs2220672
rs10488820
rs3741025
rs1998276
rs353635
rs10501138
rs611459
rs488331
rs10501392
rs1115508
rs7950441
rs10501463
rs1479296
rs10501500
rs7928108
rs687695
rs10501697
rs2000790
rs4753047
rs1603485
rs540248
rs495862
rs2186584
rs504909
rs4753931
rs10501923
rs10501968
rs613358
rs10502082
rs611646
rs2726913
rs1443120
rs10502164
rs4131241
rs10488708
rs1939693
rs587703
rs10502223
rs10502267
rs3867245
rs7116863
rs1039778
rs1106983
rs7303072
rs3924361
rs11061712
rs7294540
rs2108639
rs882195
rs2024169
rs10848874
rs10849006
rs4766286
rs7958195
rs917633
rs1803621
rs11044983
rs7138795
rs10841876
rs4763866
rs2417737
rs10845199
rs10743931
rs10491985
rs4764011
rs10492141
rs10845916
rs7965551
rs10846259
rs10846380
rs7953716
rs1586288
rs11044184
rs1471891
rs4764470
rs6486945
rs11044523
rs1581614
rs10841562
rs2199686
rs738028
rs6487268
rs11046741
rs10842124
rs11837999
rs1497255
rs829831
rs859024
rs12299407
rs9630260
rs1836861
rs1438513
rs11050931
rs4931434
rs2351921
rs9888427
rs6488170
rs10161172
rs1687008
rs10772204
rs11170970
rs4002321
rs2134393
rs7298168
rs11171371
rs7307310
rs2920814
rs1867436
rs10506191
rs7974539
rs1656535
rs11182219
rs10785571
rs35122
rs7316282
rs4077707
rs2111773
rs2465207
rs10881016
rs12229092
rs833838
rs1283168
rs6581025
rs10783783
rs10506349
rs7398058
rs4760172
rs12580381
rs3847707
rs7487004
rs11172986
rs11173197
rs7956125
rs7955622
rs11173523
rs1857945
rs7977604
rs7977306
rs10506436
rs10506440
rs10506460
rs10877950
rs11175391
rs11175800
rs12422789
rs10506495
rs7973341
rs11177339
rs10506578
rs12312791
rs1603225
rs1280823
rs1386485
rs2272504
rs7313131
rs7966438
rs2063182
rs10506685
rs6582274
rs2471634
rs12580965
rs310838
rs1066022
rs7975372
rs10506806
rs11611291
rs2430864
rs2400692
rs10506849
rs1922553
rs10506864
rs1490433
rs2219568
rs10862866
rs1507210
rs10863016
rs6539942
rs865720
rs10506933
rs11612582
rs10777045
rs1512687
rs10506948
rs6538130
rs10745474
rs11104966
rs704115
rs1504143
rs3138208
rs790468
rs1979803
rs10859485
rs2033089
rs10498964
rs10507057
rs10492222
rs7314573
rs6538838
rs7975323
rs2372643
rs2249601
rs4764769
rs612640
rs10492086
rs10507145
rs12099822
rs10860935
rs2373979
rs10861067
rs4964121
rs2888846
rs7959062
rs2374734
rs10861841
rs10861863
rs12582815
rs4623951
rs9738254
rs9706102
rs11066209
rs10850025
rs10850031
rs12425352
rs7309495
rs4767019
rs7304051
rs7301908
rs10437848
rs7311298
rs3907612
rs10774867
rs7955727
rs2240318
rs10840649
rs2458449
rs2098098
rs4765425
rs1194040
rs6489171
rs1489428
rs10083192
rs1002508
rs1106369
rs10773856
rs11061501
rs2077758
rs10870585
rs9285128
rs9316337
rs1044045
rs2765119
rs1998478
rs4769422
rs880214
rs117395
rs4942356
rs2146286
rs10492606
rs9315219
rs10507414
rs1591646
rs1171086
rs1853326
rs9532380
rs1886191
rs9316173
rs7338907
rs10507557
rs9316444
rs1819191
rs1924372
rs4632028
rs9316727
rs9537053
rs10507603
rs9285221
rs342578
rs10507641
rs7333079
rs3119884
rs1332388
rs1577485
rs10507723
rs9599207
rs1441553
rs1410619
rs9530040
rs998266
rs9318323
rs10492453
rs2775141
rs1931035
rs1572218
rs9602526
rs9319107
rs11839954
rs9566072
rs9547235
rs9531802
rs1753773
rs9575968
rs9575986
rs9547490
rs9602994
rs9518594
rs9560688
rs9556359
rs9584218
rs9518599
rs9518931
rs338732
rs9301547
rs1380332
rs7986160
rs7986010
rs9556158
rs160140
rs9556345
rs9556347
rs9302028
rs7328468
rs11070146
rs7987510
rs9513122
rs9556811
rs11069313
rs9557078
rs9557195
rs912129
rs9300571
rs9582359
rs9300600
rs9518104
rs908510
rs10508046
rs9518498
rs2476236
rs9518662
rs1927384
rs2699351
rs9558029
rs9582740
rs11838954
rs9558542
rs9301126
rs9514606
rs2769921
rs10508184
rs9514713
rs10467234
rs10492670
rs1223978
rs12430753
rs1151409
rs10220207
rs9301322
rs6492202
rs11069817
rs9630329
rs927880
rs9588367
rs9550055
rs282578
rs4907582
rs2260897
rs1191358
rs10483387
rs1124181
rs10483360
rs1953273
rs2300861
rs1680692
rs10483461
rs1955540
rs7150091
rs9323026
rs1987295
rs10498373
rs10483550
rs10498419
rs3912203
rs171410
rs1956197
rs461951
rs10483735
rs10498505
rs10483760
rs9323594
rs1950265
rs4903750
rs9323673
rs799099
rs10484117
rs10484113
rs9323765
rs1557008
rs10498605
rs9323852
rs1956413
rs6575503
rs1748935
rs10498648
rs7359068
rs10484134
rs4074004
rs2097579
rs4028400
rs2596167
rs4779632
rs10519899
rs10520077
rs1469305
rs956391
rs2255042
rs1554420
rs8024102
rs10519249
rs9302158
rs2554324
rs1508028
rs10518731
rs2414385
rs9302206
rs4578590
rs10519137
rs10519144
rs4143841
rs4514651
rs10519141
rs8030379
rs2350482
rs4356457
rs2388299
rs10520798
rs7179625
rs2567426
rs6496158
rs2120021
rs1007212
rs748991
rs727859
rs958983
rs10492752
rs8048056
rs10492878
rs10518185
rs1925503
rs172958
rs10492790
rs7193224
rs1345407
rs4785224
rs1033046
rs8059628
rs9302683
rs1423909
rs2161662
rs10500499
rs10500517
rs1559347
rs10500585
rs7200808
rs9319534
rs10521318
rs4239061
rs9303193
rs2001486
rs4985741
rs2072332
rs1988353
rs2881782
rs4796013
rs10514929
rs4534896
rs7212568
rs1031627
rs2159441
rs8071849
rs10515122
rs1867165
rs302848
rs8071606
rs9302995
rs3859181
rs6505623
rs10502294
rs1940694
rs628274
rs1442342
rs414273
rs722605
rs484528
rs2242148
rs2299842
rs495116
rs4797775
rs9973150
rs1817608
rs10502496
rs7239324
rs10502528
rs9304128
rs10502662
rs1787767
rs3921068
rs8098098
rs10502915
rs9304414
rs10515960
rs8097792
rs9319979
rs10503112
rs575291
rs10503130
rs512684
rs572166
rs10514056
rs7229709
rs10514109
rs10514141
rs10514201
rs7227954
rs2385821
rs10403787
rs754291
rs57740
rs10500236
rs10500281
rs307918
rs10500321
rs408552
rs84823
rs10485603
rs4141626
rs1715372
rs2273372
rs6117692
rs6140505
rs2205779
rs725941
rs3908399
rs6078936
rs1028542
rs4814335
rs10485517
rs10485594
rs6029306
rs6030251
rs10485463
rs6068220
rs1321465
rs171969
rs10485466
rs2426921
rs2045586
rs10482884
rs1482415
rs1501224
rs1459395
rs2829272
rs7278244
rs743430
rs2837430
rs2410218
rs2837543
rs2838846
rs5992495
rs1978058
rs11705359
rs6004579
rs738415
rs10483250
